R 笔记
…
5. Data Manipulation

Exercise 6.1.
The built-in data set iris is a data frame containing measurements of the sepals and petals of 150 iris ﬂowers.
Convert this data to a tibble with new variables Sepal.Area and Petal.Area which are the product of the corresponding length and width measurements.

mutate() : Create new variables by computation.

as_tibble(iris)
iris_tibble <- as_tibble(iris) %>%
  mutate(Sepal.Area = Sepal.Length * Sepal.Width, Petal.Area = Petal.Length * Petal.Width)
iris_tibble

# A tibble: 150 × 5
   Sepal.Length Sepal.Width Petal.Length Petal.Width Species
          <dbl>       <dbl>        <dbl>       <dbl> <fct>  
 1          5.1         3.5          1.4         0.2 setosa 
 2          4.9         3            1.4         0.2 setosa 
 3          4.7         3.2          1.3         0.2 setosa 
 4          4.6         3.1          1.5         0.2 setosa 
 5          5           3.6          1.4         0.2 setosa 
 6          5.4         3.9          1.7         0.4 setosa 
 7          4.6         3.4          1.4         0.3 setosa 
 8          5           3.4          1.5         0.2 setosa 
 9          4.4         2.9          1.4         0.2 setosa 
10          4.9         3.1          1.5         0.1 setosa 
# ℹ 140 more rows
# ℹ Use `print(n = ...)` to see more rows
# A tibble: 150 × 7
   Sepal.Length Sepal.Width Petal.Length Petal.Width Species Sepal.Area
          <dbl>       <dbl>        <dbl>       <dbl> <fct>        <dbl>
 1          5.1         3.5          1.4         0.2 setosa        17.8
 2          4.9         3            1.4         0.2 setosa        14.7
 3          4.7         3.2          1.3         0.2 setosa        15.0
 4          4.6         3.1          1.5         0.2 setosa        14.3
 5          5           3.6          1.4         0.2 setosa        18  
 6          5.4         3.9          1.7         0.4 setosa        21.1
 7          4.6         3.4          1.4         0.3 setosa        15.6
 8          5           3.4          1.5         0.2 setosa        17  
 9          4.4         2.9          1.4         0.2 setosa        12.8
10          4.9         3.1          1.5         0.1 setosa        15.2
# ℹ 140 more rows
# ℹ 1 more variable: Petal.Area <dbl>
# ℹ Use `print(n = ...)` to see more rows
…
